KEY WORDS TABLE:
 PROCEDURE code: 401 line: 1 position: 1
 LABEL code: 402 line: 2 position: 1
 BEGIN code: 403 line: 3 position: 1
 END code: 404 line: 4 position: 1

IDENTIFIERS TABLE:
 MYPROC code: 1001 line: 1 position: 11
 MYVAR1 code: 1002 line: 1 position: 18
 MYVAR2 code: 1003 line: 1 position: 26

CONSTANTS TABLE:
 37 code: 501 line: 2 position: 7

 SINGLE DELIMETERS TABLE:
 ( code: 40 line: 1 position: 17
 , code: 44 line: 1 position: 24
 ) code: 41 line: 1 position: 32
 ; code: 59 line: 1 position: 33
 ; code: 59 line: 2 position: 9
 ; code: 59 line: 4 position: 4
 NO ERRORS DETECTED!
